<svg id="Group_2060" data-name="Group 2060" xmlns="http://www.w3.org/2000/svg" viewBox="0 0 81.5 81.5">
  <defs>
    <style>
      .cls-1 {
        fill: #fff;
      }
    </style>
  </defs>
  <path id="Path_18994" data-name="Path 18994" class="cls-1" d="M74.337,52.688H71.949V50.3a7.171,7.171,0,0,0-7.163-7.163H43.138V38.362H50.3a2.388,2.388,0,0,0,0-4.775H47.913V28.812h7.163a7.171,7.171,0,0,0,7.163-7.163V7.163A7.171,7.171,0,0,0,55.076,0H26.424a7.171,7.171,0,0,0-7.163,7.163V21.648a7.171,7.171,0,0,0,7.163,7.163h7.163v4.775H31.2a2.388,2.388,0,0,0,0,4.775h7.163v4.775H16.714A7.171,7.171,0,0,0,9.551,50.3v2.388H7.163A7.171,7.171,0,0,0,0,59.852v4.775A7.171,7.171,0,0,0,7.163,71.79H9.551v4.935H7.163a2.388,2.388,0,0,0,0,4.775h9.551a2.388,2.388,0,0,0,0-4.775H14.326V71.79h2.388a7.171,7.171,0,0,0,7.163-7.163V59.852a7.171,7.171,0,0,0-7.163-7.163H14.326V50.3a2.39,2.39,0,0,1,2.388-2.388H38.362v4.775H35.975a7.171,7.171,0,0,0-7.163,7.163v4.775a7.171,7.171,0,0,0,7.163,7.163h2.388v4.935H35.975a2.388,2.388,0,0,0,0,4.775h9.551a2.388,2.388,0,0,0,0-4.775H43.138V71.79h2.388a7.171,7.171,0,0,0,7.163-7.163V59.852a7.171,7.171,0,0,0-7.163-7.163H43.138V47.913H64.786A2.39,2.39,0,0,1,67.174,50.3v2.388H64.786a7.171,7.171,0,0,0-7.163,7.163v4.775a7.171,7.171,0,0,0,7.163,7.163h2.388v4.935H64.786a2.388,2.388,0,0,0,0,4.775h9.551a2.388,2.388,0,0,0,0-4.775H71.949V71.79h2.388A7.171,7.171,0,0,0,81.5,64.627V59.852A7.171,7.171,0,0,0,74.337,52.688ZM16.714,57.464A2.39,2.39,0,0,1,19.1,59.852v4.775a2.39,2.39,0,0,1-2.388,2.388H7.163a2.39,2.39,0,0,1-2.388-2.388V59.852a2.39,2.39,0,0,1,2.388-2.388Zm9.71-33.428a2.39,2.39,0,0,1-2.388-2.388V7.163a2.39,2.39,0,0,1,2.388-2.388H55.076a2.39,2.39,0,0,1,2.388,2.388V21.648a2.39,2.39,0,0,1-2.388,2.388Zm19.1,33.428a2.39,2.39,0,0,1,2.388,2.388v4.775a2.39,2.39,0,0,1-2.388,2.388H35.975a2.39,2.39,0,0,1-2.388-2.388V59.852a2.39,2.39,0,0,1,2.388-2.388ZM38.362,33.587V28.812h4.775v4.775Zm38.362,31.04a2.39,2.39,0,0,1-2.388,2.388H64.786A2.39,2.39,0,0,1,62.4,64.627V59.852a2.39,2.39,0,0,1,2.388-2.388h9.551a2.39,2.39,0,0,1,2.388,2.388Z"/>
</svg>
