<svg xmlns="http://www.w3.org/2000/svg" viewBox="0 0 262.251 73.953">
  <defs>
    <style>
      .cls-1 {
        fill: #272525;
      }
    </style>
  </defs>
  <path id="Path_3" data-name="Path 3" class="cls-1" d="M53.955-46.926H69a28.49,28.49,0,0,0-3.366-10.89,26.483,26.483,0,0,0-6.782-7.97,29.882,29.882,0,0,0-9.306-4.9,35.615,35.615,0,0,0-11.039-1.683,35.7,35.7,0,0,0-14.6,2.871,31.233,31.233,0,0,0-10.94,7.92,35.315,35.315,0,0,0-6.831,11.83,44.167,44.167,0,0,0-2.376,14.7,42.692,42.692,0,0,0,2.376,14.4A34.4,34.4,0,0,0,12.969-9.009a31.29,31.29,0,0,0,10.94,7.771,36.246,36.246,0,0,0,14.6,2.822A34.821,34.821,0,0,0,50.49-.4a27.774,27.774,0,0,0,9.5-5.742,28.691,28.691,0,0,0,6.534-9.108A35.934,35.934,0,0,0,69.6-27.225H54.549a20.144,20.144,0,0,1-4.9,11.484q-4.01,4.356-11.138,4.356a18.145,18.145,0,0,1-8.91-2.03,17,17,0,0,1-5.94-5.4,23.41,23.41,0,0,1-3.316-7.573,35.983,35.983,0,0,1-1.04-8.663,38.68,38.68,0,0,1,1.04-9.009,23.859,23.859,0,0,1,3.316-7.772,16.823,16.823,0,0,1,5.94-5.445,18.145,18.145,0,0,1,8.91-2.03,16.158,16.158,0,0,1,5.494.94,15.98,15.98,0,0,1,4.7,2.623,15.624,15.624,0,0,1,3.465,3.91A12.692,12.692,0,0,1,53.955-46.926Zm71.379,0h15.048a28.49,28.49,0,0,0-3.366-10.89,26.483,26.483,0,0,0-6.781-7.97,29.882,29.882,0,0,0-9.306-4.9,35.615,35.615,0,0,0-11.038-1.683,35.7,35.7,0,0,0-14.6,2.871,31.233,31.233,0,0,0-10.939,7.92,35.315,35.315,0,0,0-6.831,11.83,44.167,44.167,0,0,0-2.376,14.7,42.692,42.692,0,0,0,2.376,14.4A34.4,34.4,0,0,0,84.348-9.009,31.29,31.29,0,0,0,95.287-1.238a36.246,36.246,0,0,0,14.6,2.822A34.821,34.821,0,0,0,121.869-.4a27.774,27.774,0,0,0,9.5-5.742,28.691,28.691,0,0,0,6.534-9.108,35.934,35.934,0,0,0,3.069-11.979H125.928a20.144,20.144,0,0,1-4.9,11.484q-4.009,4.356-11.137,4.356a18.145,18.145,0,0,1-8.91-2.03,17,17,0,0,1-5.94-5.4,23.411,23.411,0,0,1-3.316-7.573,35.983,35.983,0,0,1-1.039-8.663,38.68,38.68,0,0,1,1.039-9.009,23.859,23.859,0,0,1,3.316-7.772,16.823,16.823,0,0,1,5.94-5.445,18.145,18.145,0,0,1,8.91-2.03,16.158,16.158,0,0,1,5.494.94,15.98,15.98,0,0,1,4.7,2.623,15.624,15.624,0,0,1,3.465,3.91A12.692,12.692,0,0,1,125.334-46.926Zm41.58,9.9L142.263,0h17.424l15.741-24.453L190.872,0h18.513L184.734-36.927,207.4-70.686H190.377L176.022-48.114l-13.86-22.572H144.144Zm62.37-20.592V0h15.543V-57.618h21.186V-70.686H208.1v13.068Z" transform="translate(-3.762 72.369)"/>
</svg>
