<svg xmlns="http://www.w3.org/2000/svg" viewBox="0 0 100.65 81.602">
  <defs>
    <style>
      .cls-1 {
        fill: #fff;
      }
    </style>
  </defs>
  <g id="hand" transform="translate(0 -48.449)">
    <g id="Group_2064" data-name="Group 2064" transform="translate(44.775 71.062)">
      <g id="Group_2063" data-name="Group 2063" transform="translate(0 0)">
        <path id="Path_18996" data-name="Path 18996" class="cls-1" d="M229.241,163.481a1.475,1.475,0,0,0-1.475,1.475v3.933a1.475,1.475,0,1,0,2.95,0v-3.933A1.475,1.475,0,0,0,229.241,163.481Z" transform="translate(-227.766 -163.481)"/>
      </g>
    </g>
    <g id="Group_2068" data-name="Group 2068" transform="translate(71.32 56.314)">
      <g id="Group_2067" data-name="Group 2067">
        <path id="Path_18998" data-name="Path 18998" class="cls-1" d="M364.274,88.459h0a1.475,1.475,0,0,0-1.475,1.474l0,7.866a1.475,1.475,0,0,0,1.475,1.475h0a1.475,1.475,0,0,0,1.475-1.474l0-7.866A1.475,1.475,0,0,0,364.274,88.459Z" transform="translate(-362.797 -88.459)"/>
      </g>
    </g>
    <g id="Group_2071" data-name="Group 2071">
      <g id="Group_2062" data-name="Group 2062" transform="translate(37.893 66.146)">
        <g id="Group_2061" data-name="Group 2061">
          <path id="Path_18995" data-name="Path 18995" class="cls-1" d="M201.114,138.472a8.367,8.367,0,0,0-8.357,8.357v5.9a8.357,8.357,0,0,0,16.714,0v-5.9A8.367,8.367,0,0,0,201.114,138.472Zm0,19.664a5.414,5.414,0,0,1-5.385-4.922,8.334,8.334,0,0,0,10.769,0A5.414,5.414,0,0,1,201.114,158.136Zm0-5.9a5.408,5.408,0,1,1,5.408-5.407A5.414,5.414,0,0,1,201.114,152.237Z" transform="translate(-192.757 -138.472)"/>
        </g>
      </g>
      <g id="Group_2066" data-name="Group 2066" transform="translate(59.522 48.449)">
        <g id="Group_2065" data-name="Group 2065">
          <path id="Path_18997" data-name="Path 18997" class="cls-1" d="M316.057,48.449a13.288,13.288,0,0,0-13.273,13.273v5.9s0,0,0,0a13.272,13.272,0,0,0,26.545.024c0-.008,0-.016,0-.023v-5.9A13.288,13.288,0,0,0,316.057,48.449Zm0,29.5a10.34,10.34,0,0,1-9.9-7.39,13.248,13.248,0,0,0,19.792,0A10.34,10.34,0,0,1,316.057,77.944Zm0-5.9A10.323,10.323,0,1,1,326.38,61.722,10.335,10.335,0,0,1,316.057,72.045Z" transform="translate(-302.784 -48.449)"/>
        </g>
      </g>
      <g id="Group_2070" data-name="Group 2070" transform="translate(0 88.768)">
        <g id="Group_2069" data-name="Group 2069">
          <path id="Path_18999" data-name="Path 18999" class="cls-1" d="M99.8,263.133a7.385,7.385,0,0,0-10.027-2.725c-.639.315-8.8,4.324-15.521,7.154a1.475,1.475,0,1,0,1.144,2.719c7.049-2.966,15.638-7.205,15.724-7.248q.042-.021.083-.044a4.432,4.432,0,0,1,6.044,1.62c1.412,2.443-.793,5.124-1.872,6.22-7.322,5.906-27.583,21.052-34.393,21.052-7.548,0-28.73-4.487-33.91-5.61V262.182c10.271-1.509,15.712.384,27.115,4.357,3.469,1.209,7.4,2.578,12.175,4.105A3.127,3.127,0,0,1,68.3,274.58a3.539,3.539,0,0,1-4.094,2.582c-2.9-.545-19.99-2.862-20.715-2.961a1.475,1.475,0,0,0-.4,2.923c.177.024,17.737,2.406,20.568,2.937a6.927,6.927,0,0,0,1.278.121,6.54,6.54,0,0,0,6.185-4.756,6.033,6.033,0,0,0-3.644-7.512l-.016-.007-.014-.006c-.02-.008-.04-.014-.06-.022s-.04-.016-.061-.023c-4.771-1.524-8.7-2.894-12.171-4.1-11.372-3.963-17.364-6.047-28.086-4.551v-1.233A1.475,1.475,0,0,0,25.6,256.5H21.174v-1.474a1.475,1.475,0,0,0-1.475-1.475H1.475A1.475,1.475,0,0,0,0,255.022v32.434a1.475,1.475,0,0,0,2.95,0V256.5H18.224v35.384H15.277v-1.474a1.475,1.475,0,1,0-2.95,0v1.474H1.475a1.475,1.475,0,1,0,0,2.95H19.7a1.475,1.475,0,0,0,1.475-1.475v-1.549H25.6a1.475,1.475,0,0,0,1.475-1.475V289.29c6.17,1.333,26.252,5.54,33.91,5.54,4.03,0,11.177-3.591,21.848-10.977,7.7-5.327,14.394-10.727,14.461-10.781a1.483,1.483,0,0,0,.117-.105C100.612,269.759,101.506,266.083,99.8,263.133Zm-75.679,24.3v1.424H21.174V259.445h2.948v27.988Z" transform="translate(0 -253.547)"/>
        </g>
      </g>
    </g>
  </g>
</svg>
